{
    "pageGuide": [
        {
            "title": "Expression Help",
            "description": "Welcome to the new help system.  Use the Next and Previous buttons to step through the current page's features.",
            "buttons": [
                {
                    "name": "Go!",
                    "type": "next"
                }
            ],
            "xButton": true,
            "overlay": true
        },
        {
            "attachTo": "#chooseDatasets",
            "title": "Change Datasets",
            "description": "This allows you to select a different dataset.",
            "buttons": [
                {
                    "name": "Next",
                    "type": "next"
                }
            ],
            "position": 11,
            "overlay": true,
            "highlight": true,
            "xButton": true
        },
        {
            "attachTo": "#searchMainArea",
            "title": "Gene Search",
            "description": "If you wish to change the current gene, start typing in here and after 4 characters are entered a dropdown appears with genes matching the search.  Use the mouse or arrow keys to select a gene, or just keep typing and press enter or click the change gene button to the right.",
            "overlay": true,
            "highlight": true,
            "position": 11,
            "xButton": true
        },
        {
            "attachTo": "#exportMenu",
            "title": "Export Menu",
            "description": "Click here to show the export and sharing menu.",
            "overlay": true,
            "highlight": true,
            "position": 11,
            "xButton": true
        }
    ]
    
}