{
    "geneSearch": [
        {
            "attachTo": "#displayGeneResults",
            "title": "Step 3: Select a gene",
            "description": "Use the checkboxes to select the gene you wish to display on the right",
            "position": 11,
            "overlay": true,
            "highlight": true,
            "xButton": true
        },
        {
            "attachTo": "#displayGeneDetail",
            "title": "Step 4: Blah Blah",
            "description": "fwalk awlknm lwk w nalwk wa nw wlan wlkn a aklwdnw lk",
            "position": 1,
            "overlay": true,
            "highlight": true,
            "xButton": true
        }
    ]
}
